Untitled
…
Recipes and Categorical Predictors

The FE depend on the form of the predictors. If we have a categorical predictor we like mentioned before make it to a dummy variable.

The function recipe is in the package recipes. It is a descriptiong of waht steps should be applied to the data so it is ready for analysis recipe(x, )

recipe(
  Sale_Price ~ Longitude + Latitude + Neighborhood, 
  data = ames_train) %>%
  step_log(Sale_Price, base = 10) %>%
  step_other(Neighborhood, threshold = 0.05) %>%
  step_dummy(all_nominal()) %>% prep %>% juice()

## # A tibble: 2,199 x 11
##    Longitude Latitude Sale_Price Neighborhood_College_Creek Neighborhood_Old_To
##        <dbl>    <dbl>      <dbl>                      <dbl>                <dbl>
##  1     -93.6     42.1       5.24                          0                    0
##  2     -93.6     42.1       5.39                          0                    0
##  3     -93.6     42.1       5.28                          0                    0
##  4     -93.6     42.1       5.29                          0                    0
##  5     -93.6     42.1       5.33                          0                    0
##  6     -93.6     42.1       5.28                          0                    0
##  7     -93.6     42.1       5.37                          0                    0
##  8     -93.6     42.1       5.28                          0                    0
##  9     -93.6     42.1       5.25                          0                    0
## 10     -93.6     42.1       5.26                          0                    0
## #  with 2,189 more rows, and 6 more variables: Neighborhood_Edwards <dbl>,
## #   Neighborhood_Somerset <dbl>, Neighborhood_Northridge_Heights <dbl>,
## #   Neighborhood_Gilbert <dbl>, Neighborhood_Sawyer <dbl>,
## #   Neighborhood_other <dbl>
…
Now that we have a preprocessing specification, lets run it on the training set to prepare the recipe:

mod_rec_trained <- 
  rec %>% 
  prep(training = ames_train)

Here, the training is to determine which levels to lump together and to enumerate the factor levels of the Neighborhood variable.

Now that the recipe has been prepared, we can extract the processed training set from it, with all of the steps applied. To do that, we use juice().

In prep the steps are being estimated and applied in the traning set. juice() will return the results of a recipe where all steps have been applied.

mod_rec_trained %>% juice()

## # A tibble: 2,199 x 11
##    Longitude Latitude Sale_Price Neighborhood_College_Creek Neighborhood_Old_To
##        <dbl>    <dbl>      <dbl>                      <dbl>                <dbl>
##  1     -93.6     42.1       5.24                          0                    0
##  2     -93.6     42.1       5.39                          0                    0
##  3     -93.6     42.1       5.28                          0                    0
##  4     -93.6     42.1       5.29                          0                    0
##  5     -93.6     42.1       5.33                          0                    0
##  6     -93.6     42.1       5.28                          0                    0
##  7     -93.6     42.1       5.37                          0                    0
##  8     -93.6     42.1       5.28                          0                    0
##  9     -93.6     42.1       5.25                          0                    0
## 10     -93.6     42.1       5.26                          0                    0
## #  with 2,189 more rows, and 6 more variables: Neighborhood_Edwards <dbl>,
## #   Neighborhood_Somerset <dbl>, Neighborhood_Northridge_Heights <dbl>,
## #   Neighborhood_Gilbert <dbl>, Neighborhood_Sawyer <dbl>,
## #   Neighborhood_other <dbl>

This is what youd pass on to fit() your model.

After model fitting, youll eventually want to make predictions on new data. But first, you have to reapply all of the pre-processing steps on it. To do that, use bake().

bake() takes a trained recipe and applies the operations to a data set to create a design matrix.

mod_rec_trained %>%  bake(new_data = ames_test)

## # A tibble: 731 x 11
##    Longitude Latitude Sale_Price Neighborhood_College_Creek Neighborhood_Old_To
##        <dbl>    <dbl>      <dbl>                      <dbl>                <dbl>
##  1     -93.6     42.1       5.33                          0                    0
##  2     -93.6     42.1       5.02                          0                    0
##  3     -93.6     42.1       5.27                          0                    0
##  4     -93.6     42.1       5.60                          0                    0
##  5     -93.6     42.1       5.28                          0                    0
##  6     -93.6     42.1       5.17                          0                    0
##  7     -93.6     42.1       5.02                          0                    0
##  8     -93.7     42.1       5.46                          0                    0
##  9     -93.7     42.1       5.44                          0                    0
## 10     -93.7     42.1       5.33                          0                    0
## #  with 721 more rows, and 6 more variables: Neighborhood_Edwards <dbl>,
## #   Neighborhood_Somerset <dbl>, Neighborhood_Northridge_Heights <dbl>,
## #   Neighborhood_Gilbert <dbl>, Neighborhood_Sawyer <dbl>,
## #   Neighborhood_other <dbl>
…
## # A tibble: 2 x 4
##   .metric .estimator .estimate .config             
##   <chr>   <chr>          <dbl> <chr>               
## 1 rmse    standard      0.0867 Preprocessor1_Model1
## 2 rsq     standard      0.746  Preprocessor1_Model1

WeYou can also extract the test set predictions themselves using the collect_predictions() function.

collect_predictions() is used to obtain and format results produced by tuning functions.

final_res %>% 
  collect_predictions()

## # A tibble: 731 x 5
##    id               .pred  .row Sale_Price .config             
##    <chr>            <dbl> <int>      <dbl> <chr>               
##  1 train/test split  5.19     1       5.33 Preprocessor1_Model1
##  2 train/test split  5.07     2       5.02 Preprocessor1_Model1
##  3 train/test split  5.22    12       5.27 Preprocessor1_Model1
##  4 train/test split  5.42    18       5.60 Preprocessor1_Model1
##  5 train/test split  5.23    21       5.28 Preprocessor1_Model1
##  6 train/test split  5.13    24       5.17 Preprocessor1_Model1
##  7 train/test split  4.94    31       5.02 Preprocessor1_Model1
##  8 train/test split  5.36    40       5.46 Preprocessor1_Model1
##  9 train/test split  5.38    42       5.44 Preprocessor1_Model1
## 10 train/test split  5.33    44       5.33 Preprocessor1_Model1
## #  with 721 more rows
…
